test/counter.vcd
$date
	Tue Sep 20 18:07:52 2022
$end
$version
	Icarus Verilog
$end
$timescale
	1ps
$end
$scope module stimulus $end
$var wire 4 ! binary [3:0] $end
$var reg 1 " clk $end
$var reg 1 # reset $end
$var integer 32 $ i [31:0] $end
$scope module u_bc $end
$var wire 1 % Cout $end
$var wire 4 & binary [3:0] $end
$var wire 1 " clk $end
$var wire 1 # reset $end
$var wire 4 ' r_next [3:0] $end
$var parameter 32 ( N $end
$var reg 1 ) C $end
$var reg 4 * r_reg [3:0] $end
$upscope $end
$upscope $end
$enddefinitions $end
$comment Show the parameter values. $end
$dumpall
b100 (
$end
#0
$dumpvars
bx *
0)
bx '
bx &
0%
b0 $
1#
0"
bx !
$end
#2000
b1 '
b0 !
b0 &
b0 *
0#
#4000
1#
#10000
b10 '
b1 !
b1 &
b1 *
b1 $
1"
#20000
b10 $
0"
#30000
b11 '
b10 !
b10 &
b10 *
b11 $
1"
#40000
b100 $
0"
#50000
b100 '
b11 !
b11 &
b11 *
b101 $
1"
#60000
b110 $
0"
#70000
b101 '
b100 !
b100 &
b100 *
b111 $
1"
#80000
b1000 $
0"
#90000
b110 '
b101 !
b101 &
b101 *
b1001 $
1"
#100000
b1010 $
0"
#110000
b111 '
b110 !
b110 &
b110 *
b1011 $
1"
#120000
b1100 $
0"
#130000
b1000 '
b111 !
b111 &
b111 *
b1101 $
1"
#140000
b1110 $
0"
#150000
b1001 '
b1000 !
b1000 &
b1000 *
b1111 $
1"
#160000
b10000 $
0"
#170000
b1010 '
b1001 !
b1001 &
b1001 *
b10001 $
1"
#180000
b10010 $
0"
#190000
b1011 '
b1010 !
b1010 &
b1010 *
b10011 $
1"
#200000
b10100 $
0"
#210000
b1100 '
b1011 !
b1011 &
b1011 *
b10101 $
1"
#220000
b10110 $
0"
#230000
b1101 '
b1100 !
b1100 &
b1100 *
b10111 $
1"
#240000
b11000 $
0"
#250000
b1110 '
b1101 !
b1101 &
b1101 *
b11001 $
1"
#260000
b11010 $
0"
#270000
b1111 '
b1110 !
b1110 &
b1110 *
b11011 $
1"
#280000
b11100 $
0"
#290000
1%
1)
b0 '
b1111 !
b1111 &
b1111 *
b11101 $
1"
#300000
b11110 $
0"
#310000
0%
0)
b1 '
b0 !
b0 &
b0 *
b11111 $
1"
#320000
b100000 $
0"
#330000
b10 '
b1 !
b1 &
b1 *
b100001 $
1"
#340000
b100010 $
0"
#350000
b11 '
b10 !
b10 &
b10 *
b100011 $
1"
#360000
b100100 $
0"
#370000
b100 '
b11 !
b11 &
b11 *
b100101 $
1"
#380000
b100110 $
0"
#390000
b101 '
b100 !
b100 &
b100 *
b100111 $
1"
#400000
b101000 $
0"
#410000
b110 '
b101 !
b101 &
b101 *
b101001 $
1"
