exp4/processor.vcd
$date
	Mon Dec  5 08:19:19 2022
$end
$version
	Icarus Verilog
$end
$timescale
	1ps
$end
$scope module tb_processor $end
$var wire 8 ! BusWires [7:0] $end
$var wire 1 " Done $end
$var reg 2 # F [1:0] $end
$var reg 2 $ Rx [1:0] $end
$var reg 2 % Ry [1:0] $end
$var reg 1 & clk $end
$var reg 8 ' data [7:0] $end
$var reg 1 ( reset $end
$var reg 1 ) w $end
$scope module u_processor $end
$var wire 1 * Ain $end
$var wire 8 + BusWires [7:0] $end
$var wire 1 " Done $end
$var wire 1 , Extern $end
$var wire 2 - F [1:0] $end
$var wire 1 . FRin $end
$var wire 1 / Gin $end
$var wire 1 0 Gout $end
$var wire 2 1 Rx [1:0] $end
$var wire 2 2 Ry [1:0] $end
$var wire 1 3 clear $end
$var wire 1 & clk $end
$var wire 8 4 data [7:0] $end
$var wire 1 ( reset $end
$var wire 1 ) w $end
$var wire 2 5 count [1:0] $end
$var wire 4 6 Y [3:0] $end
$var wire 4 7 Xreg [3:0] $end
$var wire 4 8 T [3:0] $end
$var wire 8 9 R3 [7:0] $end
$var wire 8 : R2 [7:0] $end
$var wire 8 ; R1 [7:0] $end
$var wire 8 < R0 [7:0] $end
$var wire 4 = I [3:0] $end
$var wire 8 > G [7:0] $end
$var wire 6 ? FuncReg [1:6] $end
$var wire 6 @ Func [1:6] $end
$var wire 1 A AddSub $end
$var wire 8 B A [7:0] $end
$var reg 4 C Rin [0:3] $end
$var reg 4 D Rout [0:3] $end
$var reg 8 E Sum [7:0] $end
$var integer 32 F k [31:0] $end
$scope module counter $end
$var wire 1 3 clear $end
$var wire 1 & clk $end
$var reg 2 G Q [1:0] $end
$upscope $end
$scope module decI $end
$var wire 1 H ena $end
$var wire 2 I two [1:0] $end
$var reg 4 J four [3:0] $end
$upscope $end
$scope module decT $end
$var wire 1 K ena $end
$var wire 2 L two [1:0] $end
$var reg 4 M four [3:0] $end
$upscope $end
$scope module decX $end
$var wire 1 N ena $end
$var wire 2 O two [1:0] $end
$var reg 4 P four [3:0] $end
$upscope $end
$scope module decY $end
$var wire 1 Q ena $end
$var wire 2 R two [1:0] $end
$var reg 4 S four [3:0] $end
$upscope $end
$scope module functionreg $end
$var wire 6 T R [5:0] $end
$var wire 1 . Rin $end
$var wire 1 & clk $end
$var reg 6 U Q [5:0] $end
$upscope $end
$scope module reg_0 $end
$var wire 8 V R [7:0] $end
$var wire 1 W Rin $end
$var wire 1 & clk $end
$var reg 8 X Q [7:0] $end
$upscope $end
$scope module reg_1 $end
$var wire 8 Y R [7:0] $end
$var wire 1 Z Rin $end
$var wire 1 & clk $end
$var reg 8 [ Q [7:0] $end
$upscope $end
$scope module reg_2 $end
$var wire 8 \ R [7:0] $end
$var wire 1 ] Rin $end
$var wire 1 & clk $end
$var reg 8 ^ Q [7:0] $end
$upscope $end
$scope module reg_3 $end
$var wire 8 _ R [7:0] $end
$var wire 1 ` Rin $end
$var wire 1 & clk $end
$var reg 8 a Q [7:0] $end
$upscope $end
$scope module reg_A $end
$var wire 8 b R [7:0] $end
$var wire 1 * Rin $end
$var wire 1 & clk $end
$var reg 8 c Q [7:0] $end
$upscope $end
$scope module reg_G $end
$var wire 8 d R [7:0] $end
$var wire 1 / Rin $end
$var wire 1 & clk $end
$var reg 8 e Q [7:0] $end
$upscope $end
$scope module tri_0 $end
$var wire 1 f E $end
$var wire 8 g F [7:0] $end
$var wire 8 h Y [7:0] $end
$upscope $end
$scope module tri_1 $end
$var wire 1 i E $end
$var wire 8 j F [7:0] $end
$var wire 8 k Y [7:0] $end
$upscope $end
$scope module tri_2 $end
$var wire 1 l E $end
$var wire 8 m F [7:0] $end
$var wire 8 n Y [7:0] $end
$upscope $end
$scope module tri_3 $end
$var wire 1 o E $end
$var wire 8 p F [7:0] $end
$var wire 8 q Y [7:0] $end
$upscope $end
$scope module tri_G $end
$var wire 1 0 E $end
$var wire 8 r F [7:0] $end
$var wire 8 s Y [7:0] $end
$upscope $end
$scope module tri_ext $end
$var wire 1 , E $end
$var wire 8 t F [7:0] $end
$var wire 8 u Y [7:0] $end
$upscope $end
$upscope $end
$upscope $end
$enddefinitions $end
#0
$dumpvars
b0 u
bx t
b0 s
bx r
b0 q
bx p
0o
b0 n
bx m
0l
b0 k
bx j
0i
b0 h
bx g
0f
b0 e
bx d
b0 c
bx b
b0 a
0`
bx _
b0 ^
0]
bx \
b0 [
0Z
bx Y
b0 X
xW
bx V
b0 U
b0 T
b1 S
b0 R
1Q
b1 P
b0 O
1N
bx M
bx L
1K
b1 J
b0 I
1H
bx G
b100 F
bx E
b0 D
bx000 C
b0 B
0A
b0 @
b0 ?
b0 >
b1 =
b0 <
b0 ;
b0 :
b0 9
bx 8
b1 7
b1 6
bx 5
b0 4
13
b0 2
b0 1
00
0/
0.
b0 -
x,
bx +
0*
0)
1(
b0 '
0&
b0 %
b0 $
b0 #
x"
bx !
$end
#5000
0"
bz !
bz +
bz V
bz Y
bz \
bz _
bz b
bz g
bz j
bz m
bz p
bz r
bz t
0,
0W
b0 C
b100 F
b1 8
b1 M
b0 5
b0 G
b0 L
1&
#10000
0&
#15000
1&
#20000
1.
1)
b101010 '
b101010 4
b101010 u
03
0&
0(
#25000
13
b101010 E
b101010 d
1"
b101010 !
b101010 +
b101010 V
b101010 Y
b101010 \
b101010 _
b101010 b
b101010 g
b101010 j
b101010 m
b101010 p
b101010 r
b101010 t
1,
0.
1W
b1000 C
b100 F
b10 8
b10 M
b1 5
b1 G
b1 L
1&
#30000
0&
0)
#35000
03
bx E
bx d
0"
bz !
bz +
bz V
bz Y
bz \
bz _
bz b
bz g
bz j
bz m
bz p
bz r
bz t
0,
0W
b0 C
b100 F
b1 8
b1 M
b101010 <
b101010 X
b101010 h
b0 5
b0 G
b0 L
1&
#40000
0&
#45000
13
b101010 E
b101010 d
1"
b101010 !
b101010 +
b101010 V
b101010 Y
b101010 \
b101010 _
b101010 b
b101010 g
b101010 j
b101010 m
b101010 p
b101010 r
b101010 t
1,
1W
b1000 C
b100 F
b10 8
b10 M
b1 5
b1 G
b1 L
1&
#50000
0&
#55000
03
bx E
bx d
0"
bz !
bz +
bz V
bz Y
bz \
bz _
bz b
bz g
bz j
bz m
bz p
bz r
bz t
0,
0W
b0 C
b100 F
b1 8
b1 M
b0 5
b0 G
b0 L
1&
#60000
1.
1)
b100 @
b100 T
b1 $
b1 1
b1010101 '
b1010101 4
b1010101 u
0&
#65000
13
b1010101 E
b1010101 d
1"
b1010101 !
b1010101 +
b1010101 V
b1010101 Y
b1010101 \
b1010101 _
b1010101 b
b1010101 g
b1010101 j
b1010101 m
b1010101 p
b1010101 r
b1010101 t
1,
0.
1Z
b100 C
b100 F
b10 7
b10 P
b10 8
b10 M
b1 O
b1 5
b1 G
b1 L
b100 ?
b100 U
1&
#70000
0)
0&
#75000
03
bx E
bx d
0"
bz !
bz +
bz V
bz Y
bz \
bz _
bz b
bz g
bz j
bz m
bz p
bz r
bz t
0,
0Z
b0 C
b100 F
b1 8
b1 M
b1010101 ;
b1010101 [
b1010101 k
b0 5
b0 G
b0 L
1&
#80000
0&
#85000
13
b1010101 E
b1010101 d
1"
b1010101 !
b1010101 +
b1010101 V
b1010101 Y
b1010101 \
b1010101 _
b1010101 b
b1010101 g
b1010101 j
b1010101 m
b1010101 p
b1010101 r
b1010101 t
1,
1Z
b100 C
b100 F
b10 8
b10 M
b1 5
b1 G
b1 L
1&
#90000
0&
#95000
03
bx E
bx d
0"
bz !
bz +
bz V
bz Y
bz \
bz _
bz b
bz g
bz j
bz m
bz p
bz r
bz t
0,
0Z
b0 C
b100 F
b1 8
b1 M
b0 5
b0 G
b0 L
1&
#100000
1.
1)
b1000 @
b1000 T
b10 $
b10 1
b100010 '
b100010 4
b100010 u
0&
#105000
13
b100010 E
b100010 d
1"
b100010 !
b100010 +
b100010 V
b100010 Y
b100010 \
b100010 _
b100010 b
b100010 g
b100010 j
b100010 m
b100010 p
b100010 r
b100010 t
1,
0.
1]
b10 C
b100 F
b100 7
b100 P
b10 8
b10 M
b10 O
b1 5
b1 G
b1 L
b1000 ?
b1000 U
1&
#110000
0)
0&
#115000
03
bx E
bx d
0"
bz !
bz +
bz V
bz Y
bz \
bz _
bz b
bz g
bz j
bz m
bz p
bz r
bz t
0,
0]
b0 C
b100 F
b1 8
b1 M
b100010 :
b100010 ^
b100010 n
b0 5
b0 G
b0 L
1&
#120000
0&
#125000
13
b100010 E
b100010 d
1"
b100010 !
b100010 +
b100010 V
b100010 Y
b100010 \
b100010 _
b100010 b
b100010 g
b100010 j
b100010 m
b100010 p
b100010 r
b100010 t
1,
1]
b10 C
b100 F
b10 8
b10 M
b1 5
b1 G
b1 L
1&
#130000
0&
#135000
03
bx E
bx d
0"
bz !
bz +
bz V
bz Y
bz \
bz _
bz b
bz g
bz j
bz m
bz p
bz r
bz t
0,
0]
b0 C
b100 F
b1 8
b1 M
b0 5
b0 G
b0 L
1&
#140000
1.
1)
b1 $
b1 1
b100100 @
b100100 T
b10 #
b10 -
b0 '
b0 4
b0 u
0&
#145000
03
b1010101 E
b1010101 d
1*
0"
b1010101 !
b1010101 +
b1010101 V
b1010101 Y
b1010101 \
b1010101 _
b1010101 b
b1010101 g
b1010101 j
b1010101 m
b1010101 p
b1010101 r
b1010101 t
0.
1i
b100 D
b100 F
b10 7
b10 P
b100 =
b100 J
b10 8
b10 M
b1 O
b10 I
b1 5
b1 G
b1 L
b100100 ?
b100100 U
1&
#150000
0)
0&
#155000
b101010 !
b101010 +
b101010 V
b101010 Y
b101010 \
b101010 _
b101010 b
b101010 g
b101010 j
b101010 m
b101010 p
b101010 r
b101010 t
1/
0*
0i
1f
b1000 D
b100 F
b1111111 E
b1111111 d
b100 8
b100 M
b1010101 B
b1010101 c
b10 5
b10 G
b10 L
1&
#160000
0&
#165000
b11010100 E
b11010100 d
1"
13
b1111111 !
b1111111 +
b1111111 V
b1111111 Y
b1111111 \
b1111111 _
b1111111 b
b1111111 g
b1111111 j
b1111111 m
b1111111 p
b1111111 r
b1111111 t
10
0/
1Z
0f
b100 C
b0 D
b100 F
b1000 8
b1000 M
b11 5
b11 G
b11 L
b1111111 >
b1111111 e
b1111111 s
1&
#170000
0&
#175000
03
bx E
bx d
bz !
bz +
bz V
bz Y
bz \
bz _
bz b
bz g
bz j
bz m
bz p
bz r
bz t
0"
00
0Z
b0 C
b100 F
b1 8
b1 M
b1111111 ;
b1111111 [
b1111111 k
b0 5
b0 G
b0 L
1&
#180000
1.
1)
b110100 @
b110100 T
b11 #
b11 -
0&
#185000
b11010110 E
b11010110 d
b1111111 !
b1111111 +
b1111111 V
b1111111 Y
b1111111 \
b1111111 _
b1111111 b
b1111111 g
b1111111 j
b1111111 m
b1111111 p
b1111111 r
b1111111 t
1*
0.
1i
1A
b100 D
b100 F
b1000 =
b1000 J
b10 8
b10 M
b11 I
b1 5
b1 G
b1 L
b110100 ?
b110100 U
1&
#190000
0)
0&
#195000
b101010 !
b101010 +
b101010 V
b101010 Y
b101010 \
b101010 _
b101010 b
b101010 g
b101010 j
b101010 m
b101010 p
b101010 r
b101010 t
1/
0*
0i
1f
b1000 D
b100 F
b1010101 E
b1010101 d
b100 8
b100 M
b1111111 B
b1111111 c
b10 5
b10 G
b10 L
1&
#200000
0&
#205000
b101010 E
b101010 d
1"
13
b1010101 !
b1010101 +
b1010101 V
b1010101 Y
b1010101 \
b1010101 _
b1010101 b
b1010101 g
b1010101 j
b1010101 m
b1010101 p
b1010101 r
b1010101 t
10
0/
1Z
0f
b100 C
b0 D
b100 F
b1000 8
b1000 M
b11 5
b11 G
b11 L
b1010101 >
b1010101 e
b1010101 s
1&
#210000
0&
#215000
03
bx E
bx d
bz !
bz +
bz V
bz Y
bz \
bz _
bz b
bz g
bz j
bz m
bz p
bz r
bz t
0"
00
0Z
b0 C
b100 F
b1 8
b1 M
b1010101 ;
b1010101 [
b1010101 k
b0 5
b0 G
b0 L
1&
#220000
0&
#225000
b101010 E
b101010 d
b1010101 !
b1010101 +
b1010101 V
b1010101 Y
b1010101 \
b1010101 _
b1010101 b
b1010101 g
b1010101 j
b1010101 m
b1010101 p
b1010101 r
b1010101 t
1*
1i
b100 D
b100 F
b10 8
b10 M
b1 5
b1 G
b1 L
1&
#230000
0&
#235000
b101010 !
b101010 +
b101010 V
b101010 Y
b101010 \
b101010 _
b101010 b
b101010 g
b101010 j
b101010 m
b101010 p
b101010 r
b101010 t
1/
0*
0i
1f
b1000 D
b100 F
b101011 E
b101011 d
b100 8
b100 M
b1010101 B
b1010101 c
b10 5
b10 G
b10 L
1&
#240000
0&
#245000
b101010 E
b101010 d
1"
13
b101011 !
b101011 +
b101011 V
b101011 Y
b101011 \
b101011 _
b101011 b
b101011 g
b101011 j
b101011 m
b101011 p
b101011 r
b101011 t
10
0/
1Z
0f
b100 C
b0 D
b100 F
b1000 8
b1000 M
b11 5
b11 G
b11 L
b101011 >
b101011 e
b101011 s
1&
