simpleCPU/cpu/wave.vcd
$date
	Wed Oct 26 21:52:29 2022
$end
$version
	Icarus Verilog
$end
$timescale
	1ns
$end
$scope module cputop $end
$scope module m $end
$var wire 8 ! alu_in [7:0] $end
$var wire 1 " clk $end
$var wire 1 # reset $end
$var wire 1 $ zero $end
$var wire 1 % wr $end
$var wire 1 & rd $end
$var wire 6 ' pc_addr [5:0] $end
$var wire 2 ( opcode [1:0] $end
$var wire 1 ) load_pc $end
$var wire 1 * load_ir $end
$var wire 1 + load_acc $end
$var wire 6 , ir_addr [5:0] $end
$var wire 1 - inc_pc $end
$var wire 1 . halt $end
$var wire 1 / fetch $end
$var wire 1 0 datactl_ena $end
$var wire 8 1 data [7:0] $end
$var wire 1 2 control_ena $end
$var wire 1 3 clk1 $end
$var wire 8 4 alu_out [7:0] $end
$var wire 1 5 alu_clk $end
$var wire 6 6 addr [5:0] $end
$var wire 8 7 accum_out [7:0] $end
$scope module accum_u $end
$var wire 1 # rst $end
$var wire 1 + ena $end
$var wire 8 8 data [7:0] $end
$var wire 1 3 clk1 $end
$var reg 8 9 accum [7:0] $end
$upscope $end
$scope module addr_u $end
$var wire 6 : pc_addr [5:0] $end
$var wire 6 ; ir_addr [5:0] $end
$var wire 1 / fetch $end
$var wire 6 < addr [5:0] $end
$upscope $end
$scope module alu_u $end
$var wire 8 = accum [7:0] $end
$var wire 8 > data [7:0] $end
$var wire 1 $ zero $end
$var wire 2 ? opcode [1:0] $end
$var wire 1 5 alu_clk $end
$var parameter 2 @ ADD $end
$var parameter 2 A DEC $end
$var parameter 2 B INC $end
$var parameter 2 C JMP $end
$var reg 8 D alu_out [7:0] $end
$upscope $end
$scope module clk_u $end
$var wire 1 " clk $end
$var wire 1 3 clk1 $end
$var parameter 8 E idle $end
$var parameter 8 F s1 $end
$var parameter 8 G s2 $end
$var parameter 8 H s3 $end
$var parameter 8 I s4 $end
$var parameter 8 J s5 $end
$var parameter 8 K s6 $end
$var parameter 8 L s7 $end
$var parameter 8 M s8 $end
$var reg 1 5 alu_ena $end
$var reg 1 / fetch $end
$var reg 8 N state [7:0] $end
$upscope $end
$scope module control_u $end
$var wire 1 3 clk1 $end
$var wire 1 $ zero $end
$var wire 2 O opcode [1:0] $end
$var wire 1 2 ena $end
$var parameter 2 P ADD $end
$var parameter 2 Q DEC $end
$var parameter 2 R INC $end
$var parameter 2 S JMP $end
$var reg 1 0 datactl_ena $end
$var reg 1 . halt $end
$var reg 1 - inc_pc $end
$var reg 1 + load_acc $end
$var reg 1 * load_ir $end
$var reg 1 ) load_pc $end
$var reg 1 & rd $end
$var reg 3 T state [2:0] $end
$var reg 1 % wr $end
$upscope $end
$scope module counter_u $end
$var wire 1 - clk $end
$var wire 1 ) load $end
$var wire 1 # rst $end
$var wire 6 U ir_addr [5:0] $end
$var reg 6 V pc_addr [5:0] $end
$upscope $end
$scope module datactl_u $end
$var wire 1 0 data_ena $end
$var wire 8 W in [7:0] $end
$var wire 8 X data [7:0] $end
$upscope $end
$scope module machinect_u $end
$var wire 1 3 clk1 $end
$var wire 1 / fetch $end
$var wire 1 # rst $end
$var reg 1 2 ena $end
$upscope $end
$scope module ram_u $end
$var wire 6 Y addr [5:0] $end
$var wire 8 Z din [7:0] $end
$var wire 1 / ena $end
$var wire 1 & read $end
$var wire 1 [ write $end
$var reg 8 \ R_0 [7:0] $end
$var reg 8 ] R_1 [7:0] $end
$var reg 8 ^ R_2 [7:0] $end
$var reg 8 _ R_3 [7:0] $end
$var reg 8 ` data [7:0] $end
$upscope $end
$scope module register_u $end
$var wire 1 3 clk1 $end
$var wire 8 a data [7:0] $end
$var wire 1 * ena $end
$var wire 1 # rst $end
$var wire 2 b opcode [1:0] $end
$var wire 6 c ir_addr [5:0] $end
$var reg 8 d opc_iraddr [7:0] $end
$upscope $end
$scope module rom_u $end
$var wire 6 e addr [5:0] $end
$var wire 1 / ena $end
$var wire 1 & read $end
$var parameter 8 f ADD_accum_3 $end
$var parameter 8 g INC_accum $end
$var reg 8 h data [7:0] $end
$upscope $end
$upscope $end
$upscope $end
$enddefinitions $end
$comment Show the parameter values. $end
$dumpall
b1000011 g
b11000011 f
b0 S
b1 R
b10 Q
b11 P
b10000000 M
b1000000 L
b100000 K
b10000 J
b1000 I
b100 H
b10 G
b1 F
b0 E
b0 C
b1 B
b10 A
b11 @
$end
#0
$dumpvars
bx h
bx e
bx d
bx c
bx b
bx a
bx `
b11110011 _
b11110010 ^
b11110001 ]
b11110000 \
z[
bz Z
bx Y
bx X
bx W
bx V
bx U
bx T
bx O
bx N
bx D
bx ?
bx >
bx =
bx <
bx ;
bx :
bx 9
bx 8
bx 7
bx 6
x5
bx 4
13
x2
bx 1
x0
x/
x.
x-
bx ,
x+
x*
x)
bx (
bx '
x&
x%
x$
0#
0"
bx !
$end
#10
b0 '
b0 :
b0 V
1#
#50
bz !
bz >
bz a
bz h
bz `
bz 1
bz X
b1 T
0%
0*
00
0.
0-
0+
0)
0&
b0 N
03
1"
#100
b0 6
b0 <
b0 Y
b0 e
b0 (
b0 ?
b0 O
b0 b
b0 ,
b0 ;
b0 U
b0 c
02
b0 d
1$
b0 7
b0 9
b0 =
13
0"
#150
b0 T
b1 N
03
1"
#200
13
0"
#250
b0 4
b0 8
b0 D
b0 W
b10 N
15
03
1"
#300
13
0"
#350
b100 N
05
03
1"
#400
13
0"
#450
b1000 N
1/
03
1"
#500
13
0"
#550
b10000 N
03
1"
#600
13
0"
#650
b100000 N
03
1"
#700
13
0"
#750
b1000000 N
03
1"
#800
13
0"
#850
b10000000 N
0/
03
1"
#890
0#
#900
13
0"
#950
b1 N
03
1"
#1000
13
0"
#1050
b10 N
15
03
1"
#1100
13
0"
#1150
b100 N
05
03
1"
#1200
13
0"
#1250
b1000 N
1/
03
1"
#1300
12
13
0"
#1350
b1 T
b10000 N
03
1"
#1400
13
0"
#1450
b10 T
b100000 N
03
1"
#1500
13
0"
#1550
b1000011 !
b1000011 >
b1000011 a
b1000011 h
b11 T
1*
1&
b1000000 N
03
1"
#1600
b1 (
b1 ?
b1 O
b1 b
b11 ,
b11 ;
b11 U
b11 c
b1000011 d
13
0"
#1650
b1 '
b1 :
b1 V
bz !
bz >
bz a
bz h
b11 6
b11 <
b11 Y
b11 e
b100 T
0*
1-
0&
b10000000 N
0/
03
1"
#1700
13
0"
#1750
b101 T
0-
b1 N
03
1"
#1800
13
0"
#1850
b1 4
b1 8
b1 D
b1 W
b110 T
1+
b10 N
15
03
1"
#1900
0$
b1 7
b1 9
b1 =
13
0"
#1950
b11110011 !
b11110011 >
b11110011 a
b11110011 `
b1 1
b1 X
b111 T
10
0+
1&
b100 N
05
03
1"
#2000
13
0"
#2050
bz !
bz >
bz a
bz `
bz 1
bz X
b1 6
b1 <
b1 Y
b1 e
b0 T
00
0&
b1000 N
1/
03
1"
#2100
13
0"
#2150
b1 T
b10000 N
03
1"
#2200
13
0"
#2250
b10 T
b100000 N
03
1"
#2300
13
0"
#2350
b1000011 !
b1000011 >
b1000011 a
b1000011 h
b11 T
1*
1&
b1000000 N
03
1"
#2400
13
0"
#2450
b10 '
b10 :
b10 V
bz !
bz >
bz a
bz h
b11 6
b11 <
b11 Y
b11 e
b100 T
0*
1-
0&
b10000000 N
0/
03
1"
#2500
13
0"
#2550
b101 T
0-
b1 N
03
1"
#2600
13
0"
#2650
b10 4
b10 8
b10 D
b10 W
b110 T
1+
b10 N
15
03
1"
#2700
b10 7
b10 9
b10 =
13
0"
#2750
b11110011 !
b11110011 >
b11110011 a
b11110011 `
b10 1
b10 X
b111 T
10
0+
1&
b100 N
05
03
1"
#2800
13
0"
#2850
bz !
bz >
bz a
bz `
bz 1
bz X
b10 6
b10 <
b10 Y
b10 e
b0 T
00
0&
b1000 N
1/
03
1"
#2900
13
0"
#2950
b1 T
b10000 N
03
1"
#3000
13
0"
#3050
b10 T
b100000 N
03
1"
#3100
13
0"
#3150
b1000011 !
b1000011 >
b1000011 a
b1000011 h
b11 T
1*
1&
b1000000 N
03
1"
#3200
13
0"
#3250
b11 '
b11 :
b11 V
bz !
bz >
bz a
bz h
b11 6
b11 <
b11 Y
b11 e
b100 T
0*
1-
0&
b10000000 N
0/
03
1"
#3300
13
0"
#3350
b101 T
0-
b1 N
03
1"
#3400
13
0"
#3450
b11 4
b11 8
b11 D
b11 W
b110 T
1+
b10 N
15
03
1"
#3500
b11 7
b11 9
b11 =
13
0"
#3550
b11110011 !
b11110011 >
b11110011 a
b11110011 `
b11 1
b11 X
b111 T
10
0+
1&
b100 N
05
03
1"
#3600
13
0"
#3650
bz !
bz >
bz a
bz `
bz 1
bz X
b0 T
00
0&
b1000 N
1/
03
1"
#3700
13
0"
#3750
b1 T
b10000 N
03
1"
#3800
13
0"
#3850
b10 T
b100000 N
03
1"
#3900
13
0"
#3950
b1000011 !
b1000011 >
b1000011 a
b1000011 h
b11 T
1*
1&
b1000000 N
03
1"
#4000
13
0"
#4050
b100 '
b100 :
b100 V
bz !
bz >
bz a
bz h
b100 T
0*
1-
0&
b10000000 N
0/
03
1"
#4100
13
0"
#4150
b101 T
0-
b1 N
03
1"
#4200
13
0"
#4250
b100 4
b100 8
b100 D
b100 W
b110 T
1+
b10 N
15
03
1"
#4300
b100 7
b100 9
b100 =
13
0"
#4350
b11110011 !
b11110011 >
b11110011 a
b11110011 `
b100 1
b100 X
b111 T
10
0+
1&
b100 N
05
03
1"
#4400
13
0"
#4450
bz !
bz >
bz a
bz `
bz 1
bz X
b100 6
b100 <
b100 Y
b100 e
b0 T
00
0&
b1000 N
1/
03
1"
#4500
13
0"
#4550
b1 T
b10000 N
03
1"
#4600
13
0"
#4650
b10 T
b100000 N
03
1"
#4700
13
0"
#4750
b11000011 !
b11000011 >
b11000011 a
b11000011 h
b11 T
1*
1&
b1000000 N
03
1"
#4800
b11 (
b11 ?
b11 O
b11 b
b11000011 d
13
0"
#4850
b101 '
b101 :
b101 V
bz !
bz >
bz a
bz h
b11 6
b11 <
b11 Y
b11 e
b100 T
0*
1-
0&
b10000000 N
0/
03
1"
#4900
13
0"
#4950
b11110011 !
b11110011 >
b11110011 a
b11110011 `
b101 T
0-
1&
b1 N
03
1"
#5000
13
0"
#5050
b11110111 4
b11110111 8
b11110111 D
b11110111 W
b110 T
1+
b10 N
15
03
1"
#5100
b11110111 7
b11110111 9
b11110111 =
13
0"
#5150
b11110111 1
b11110111 X
b111 T
10
0+
b100 N
05
03
1"
#5200
13
0"
#5250
bz !
bz >
bz a
bz `
bz 1
bz X
b101 6
b101 <
b101 Y
b101 e
b0 T
00
0&
b1000 N
1/
03
1"
#5300
13
0"
#5350
b1 T
b10000 N
03
1"
#5400
13
0"
#5450
b10 T
b100000 N
03
1"
#5500
13
0"
#5550
b11000011 !
b11000011 >
b11000011 a
b11000011 h
b11 T
1*
1&
b1000000 N
03
1"
#5600
13
0"
#5650
b110 '
b110 :
b110 V
bz !
bz >
bz a
bz h
b11 6
b11 <
b11 Y
b11 e
b100 T
0*
1-
0&
b10000000 N
0/
03
1"
#5700
13
0"
#5750
b11110011 !
b11110011 >
b11110011 a
b11110011 `
b101 T
0-
1&
b1 N
03
1"
#5800
13
0"
#5850
b11101010 4
b11101010 8
b11101010 D
b11101010 W
b110 T
1+
b10 N
15
03
1"
#5900
b11101010 7
b11101010 9
b11101010 =
13
0"
#5950
b11101010 1
b11101010 X
b111 T
10
0+
b100 N
05
03
1"
#6000
13
0"
#6050
bz !
bz >
bz a
bz `
bz 1
bz X
b110 6
b110 <
b110 Y
b110 e
b0 T
00
0&
b1000 N
1/
03
1"
#6100
13
0"
#6150
b1 T
b10000 N
03
1"
#6200
13
0"
#6250
b10 T
b100000 N
03
1"
#6300
13
0"
#6350
b11000011 !
b11000011 >
b11000011 a
b11000011 h
b11 T
1*
1&
b1000000 N
03
1"
#6400
13
0"
#6450
b111 '
b111 :
b111 V
bz !
bz >
bz a
bz h
b11 6
b11 <
b11 Y
b11 e
b100 T
0*
1-
0&
b10000000 N
0/
03
1"
#6500
13
0"
#6550
b11110011 !
b11110011 >
b11110011 a
b11110011 `
b101 T
0-
1&
b1 N
03
1"
#6600
13
0"
#6650
b11011101 4
b11011101 8
b11011101 D
b11011101 W
b110 T
1+
b10 N
15
03
1"
#6700
b11011101 7
b11011101 9
b11011101 =
13
0"
#6750
b11011101 1
b11011101 X
b111 T
10
0+
b100 N
05
03
1"
#6800
13
0"
#6850
bz !
bz >
bz a
bz `
bz 1
bz X
b111 6
b111 <
b111 Y
b111 e
b0 T
00
0&
b1000 N
1/
03
1"
#6900
13
0"
#6950
b1 T
b10000 N
03
1"
#7000
13
0"
#7050
b10 T
b100000 N
03
1"
#7100
13
0"
#7150
b11000011 !
b11000011 >
b11000011 a
b11000011 h
b11 T
1*
1&
b1000000 N
03
1"
#7200
13
0"
#7250
b1000 '
b1000 :
b1000 V
bz !
bz >
bz a
bz h
b11 6
b11 <
b11 Y
b11 e
b100 T
0*
1-
0&
b10000000 N
0/
03
1"
#7300
13
0"
#7350
b11110011 !
b11110011 >
b11110011 a
b11110011 `
b101 T
0-
1&
b1 N
03
1"
#7400
13
0"
#7450
b11010000 4
b11010000 8
b11010000 D
b11010000 W
b110 T
1+
b10 N
15
03
1"
#7500
b11010000 7
b11010000 9
b11010000 =
13
0"
#7550
b11010000 1
b11010000 X
b111 T
10
0+
b100 N
05
03
1"
#7600
13
0"
#7650
bz !
bz >
bz a
bz `
bz 1
bz X
b1000 6
b1000 <
b1000 Y
b1000 e
b0 T
00
0&
b1000 N
1/
03
1"
#7700
13
0"
#7750
b1 T
b10000 N
03
1"
#7800
13
0"
#7850
b10 T
b100000 N
03
1"
#7900
13
0"
#7950
b11 T
1*
1&
b1000000 N
03
1"
#8000
bz (
bz ?
bz O
bz b
bz ,
bz ;
bz U
bz c
bz d
13
0"
#8050
b1001 '
b1001 :
b1001 V
bz 6
bz <
bz Y
bz e
b100 T
0*
1-
0&
b10000000 N
0/
03
1"
#8100
13
0"
#8150
b101 T
0-
b1 N
03
1"
#8200
13
0"
#8250
bx 4
bx 8
bx D
bx W
b110 T
b10 N
15
03
1"
#8300
13
0"
#8350
b111 T
b100 N
05
03
1"
#8400
13
0"
#8450
b1001 6
b1001 <
b1001 Y
b1001 e
b0 T
b1000 N
1/
03
1"
#8500
13
0"
#8550
b1 T
b10000 N
03
1"
#8600
13
0"
#8650
b10 T
b100000 N
03
1"
#8700
13
0"
#8750
b11 T
1*
1&
b1000000 N
03
1"
#8800
13
0"
#8850
b1010 '
b1010 :
b1010 V
bz 6
bz <
bz Y
bz e
b100 T
0*
1-
0&
b10000000 N
0/
03
1"
#8900
13
0"
#8950
b101 T
0-
b1 N
03
1"
#9000
13
0"
#9050
b110 T
b10 N
15
03
1"
#9100
13
0"
#9150
b111 T
b100 N
05
03
1"
#9200
13
0"
#9250
b1010 6
b1010 <
b1010 Y
b1010 e
b0 T
b1000 N
1/
03
1"
#9300
13
0"
#9350
b1 T
b10000 N
03
1"
#9400
13
0"
#9450
b10 T
b100000 N
03
1"
#9500
13
0"
#9550
b11 T
1*
1&
b1000000 N
03
1"
#9600
13
0"
#9650
b1011 '
b1011 :
b1011 V
bz 6
bz <
bz Y
bz e
b100 T
0*
1-
0&
b10000000 N
0/
03
1"
#9700
13
0"
#9750
b101 T
0-
b1 N
03
1"
#9800
13
0"
#9850
b110 T
b10 N
15
03
1"
#9900
13
0"
#9950
b111 T
b100 N
05
03
1"
#10000
13
0"
#10050
b1011 6
b1011 <
b1011 Y
b1011 e
b0 T
b1000 N
1/
03
1"
#10100
13
0"
#10150
b1 T
b10000 N
03
1"
#10200
13
0"
#10250
b10 T
b100000 N
03
1"
#10300
13
0"
#10350
b11 T
1*
1&
b1000000 N
03
1"
#10400
13
0"
#10450
b1100 '
b1100 :
b1100 V
bz 6
bz <
bz Y
bz e
b100 T
0*
1-
0&
b10000000 N
0/
03
1"
#10500
13
0"
#10550
b101 T
0-
b1 N
03
1"
#10600
13
0"
#10650
b110 T
b10 N
15
03
1"
#10700
13
0"
#10750
b111 T
b100 N
05
03
1"
#10800
13
0"
#10850
b1100 6
b1100 <
b1100 Y
b1100 e
b0 T
b1000 N
1/
03
1"
